{
    "0": {
        "name" : "Idée associée",
        "desc" : "Énumération des termes les plus étroitement associés au terme"
        },
    "1": {
        "name" : "Raffinement sémantique",
        "desc" : "Raffinement sémantique vers un usage particulier du terme"
        },
    "2": {
        "name" : "Raffinement morphologique",
        "desc" : "Raffinement morphologique vers un usage particulier du terme."
        },
    "3": {
        "name" : "Domaine",
        "desc" : "Domaine(s) relatif(s) au terme.\nEx: pour 'corner', on pourra donner les domaines 'football' ou 'sport'."
        },
    "4": {
        "name" : "Partie du discours",
        "desc" : "Partie du discours (Nom, Verbe, Adjectif, Adverbe, etc.)."
        },
    "5": {
        "name" : "Synonyme",
        "desc" : "Synonyme(s) ou quasi-synonyme(s) de ce terme."
        },
    "6": {
        "name" : "Hyperonyme",
        "desc" : "Énumération des hyperonyme(s) du terme.\nEx: 'animal' et 'mammifère' sont des hyperonymes de 'chat'."
        },
    "7": {
        "name" : "Antonyme",
        "desc" : "Énumération des antonyme(s) du terme.\nEx: 'chaud' est un antonyme de 'froid'."
        },
    "8": {
        "name" : "Hyponyme",
        "desc" : "Énumération des hyponyme(s) du terme.\nEx: 'mouche', 'abeille', 'guêpe' sont des hyponymes de 'insecte'."
        },
    "9": {
        "name" : "Méronyme",
        "desc" : "Énumération des méronyme(s) du terme.\nEx: 'voiture' a comme méronymes : 'porte', 'roue', 'moteur', ..."
        },
    "10": {
        "name" : "Holonyme",
        "desc" : "Énumération des holonyme(s) du terme.\nEx: 'main', on aura 'bras', 'corps', 'personne', etc... L'holonyme est aussi l'ensemble comme 'classe' pour 'élève'."
        },
    "11": {
        "name" : "Locution",
        "desc" : "Expression(s) ou mot(s) composé(s) en rapport avec ce terme.\nEx: pour 'moulin', ou pourra avoir 'moulin à vent', 'moulin à eau', 'moulin à café'."
        },
    "13": {
        "name" : "Agent",
        "desc" : "L'agent (qu'on appelle aussi le sujet) est l'entité qui effectue l'action, ou la subit pour des formes passives ou des verbes d'état.\nEx: des agents typiques de 'courir' peuvent être 'sportif', 'enfant',..."
        },
    "14": {
        "name" : "Patient",
        "desc" : "Le patient (qu'on appelle aussi l'objet) est l'entité qui subit l'action.\nEx: des patients typiques de manger peuvent être 'viande', 'légume', 'pain', ..."
        },
    "15": {
        "name" : "Lieu",
        "desc" : "Énumération des lieux typiques où peut se trouver le terme/objet en question.\nEx: pour 'carotte' on a 'potager'."
        },
    "16": {
        "name" : "Instrument",
        "desc" : "L'instrument est l'objet avec lequel on fait l'action.\nEx: des instruments typiques de 'tuer' peuvent être 'arme', 'pistolet', 'poison', ..."
        },
    "17": {
        "name" : "Caractéristique",
        "desc" : "Énumération des caractéristiques (adjectifs) possibles/typiques.\nEx: 'liquide', 'froide', 'chaude', pour 'eau'."
        },
    "20": {
        "name" : "Magnification",
        "desc" : "La magnification ou amplification.\nEx: 'forte fièvre' ou 'fièvre de cheval' pour 'fièvre'. Ou encore 'amour fou' pour 'amour', 'peur bleue' pour 'peur'."
        },
    "21": {
        "name" : "Antimagnification",
        "desc" : "L'inverse de la magnification.\nEx: 'bruine' pour 'pluie'."
        },
    "22": {
        "name" : "Famille lexicale",
        "desc" : "Des mots de la même famille lexicale.\nEx: pour 'lait' on pourrait mettre 'laitier', 'laitage', 'laiterie', etc."
        },
    "23": {
        "name" : "Caractéristique (inverse)",
        "desc" : "Les objets (des noms) possédant typiquement/possiblement la caractérisque suivante.\nEx: 'soleil', 'feu', pour 'chaud'."
        },
    "24": {
        "name" : "Agent (inverse)",
        "desc" : "Que peut faire ce sujet ?\nEx: chat => miauler, griffer, manger, etc."
        },
    "25": {
        "name" : "Instrument (inverse)",
        "desc" : "On obtient ici, ce qu'on peut faire avec un instrument donné...\nEx: 'scie' pour 'scier'."
        },
    "26": {
        "name" : "Patient (inverse)",
        "desc" : "Que peut-on faire à cet objet.\nEx: pour 'pomme', on pourrait avoir 'manger', 'croquer', couper', 'éplucher',  etc."
        },
    "27": {
        "name" : "Domaine (inverse)",
        "desc" : "À un domaine, on associe des termes"
        },
    "28": {
        "name" : "Lieu (inverse)",
        "desc" : "À partir d'un lieu, il est énumérer ce qui peut typiquement s'y trouver.\nEx: pour 'Paris' on a 'tour Eiffel'."
        },
    "30": {
        "name" : "Lieu (action)",
        "desc" : "À partir d'une action (un verbe), il est énumérer les lieux typiques possibles où peut être réalisée cette action."
        },
    "31": {
        "name" : "Action (lieu)",
        "desc" : "À partir d'une action (un verbe), il est énumérer les lieux typiques possibles où peut être réalisée cette action."
        },
    "32": {
        "name" : "Sentiment",
        "desc" : "Pour un terme donné, énumération de mots liés à des sentiments ou des emotions associés à ce terme.\nEx: la joie, le plaisir, le dégoût, la peur, la haine, l'amour, etc."
        },
    "34": {
        "name" : "Manière",
        "desc" : "De quelles manières peut être effectuée l'action (le verbe) proposée ? Il s'agira d'un adverbe ou d'un équivalent comme une locution adverbiale.\nEx: 'rapidement', 'sur le pouce', 'goulûment', 'salement' ... pour 'manger'."
        },
    "35": {
        "name" : "Sens/Signification",
        "desc" : "Quels sens/signification peut-on donner au terme proposé. Il s'agira de termes (des gloses) évoquant chacun des sens possibles.\nEx: 'forces de l'ordre', 'contrat d'assurance', 'police typographique', ... pour 'police'."
        },
    "37": {
        "name" : "Rôle télique",
        "desc" : "Le rôle télique indique la fonction du nom ou du verbe. C'est le rôle qu'on lui destine communément pour un artéfact, ou bien un rôle qu'on peut attribuer à un objet naturel.\nEx: 'réchauffer', 'éclairer' pour 'soleil'."
        },
    "38": {
        "name" : "Rôle agentif",
        "desc" : "De quelle(s) manière(s) peut être crée/construit le terme suivant ?\nOn énumère des verbes transitifs (le terme en est un complément d'objet) qui donnent naissance à l'entité désignée par le terme.\nEx: 'construire' pour 'maison', 'rédiger'/'imprimer' pour 'livre' ou 'lettre'."
        },
    "39": {
        "name" : "Verbe -> Action",
        "desc" : "Du verbe vers l'action.\nEx: 'construire' -> 'construction', 'jardiner' -> 'jardinage'."
        },
    "40": {
        "name" : "Action -> Verbe",
        "desc" : "De l'action vers le verbe.\nEx: 'construction' -> 'construire', 'jardinage' -> 'jardiner'."
        },
    "41": {
        "name" : "Conséquence",
        "desc" : "B (terme donné) est une conséquence possible de A. A et B sont des verbes ou des noms. \nEx: 'tomber' -> 'se blesser', 'faim' -> 'voler', 'allumer' -> 'incendie', 'négligence' -> 'accident', etc.."
        },
    "42": {
        "name" : "Cause",
        "desc" : "B (terme donné) est une cause possible de A. A et B sont des verbes ou des noms.\nEx: 'se blesser' -> 'tomber', 'vol' -> 'pauvreté', 'incendie' -> 'négligence', 'mort' -> 'maladie', etc.."
        },
    "43": {
        "name" : "Adjectif -> Verbe",
        "desc" : "Pour un adjectif de potentialité/possibilité, son verbe correspondant.\nEx: 'lavable' -> 'laver'."
        },
    "44": {
        "name" : "Verbe -> Adjectif",
        "desc" : "Pour un verbe, son adjectif de potentialité/possibilité correspondant.\nEx: 'laver' -> 'lavable'."
        },
    "49": {
        "name" : "Action -> Temps",
        "desc" : "Valeur temporelle (quel moment) associée au terme indiqué.\nEx: 'dormir' -> 'nuit', 'bronzer' -> 'été', 'fatigue' -> 'soir'."
        },
    "50": {
        "name" : "Objet -> Matière",
        "desc" : "Quel est la ou les matière/substance pouvant composer l'objet qui suit.\nEx: 'bois' pour 'poutre'."
        },
    "51": {
        "name" : "Matière -> Objet",
        "desc" : "Quel est la ou les choses qui sont composés de la matière/substance qui suit.\nEx: 'bois' -> 'poutre', 'table',etc.."
        },
    "52": {
        "name" : "Successeur temporel",
        "desc" : "Qu'est ce qui peut suivre temporellement le terme suivant.\nEx: 'Noêl' -> 'jour de l'an', 'guerre' -> 'paix', 'jour' -> 'nuit',  'pluie' -> 'beau temps'."
        },
    "53": {
        "name" : "Produit",
        "desc" : "Que peut produire le terme ?\nEx: 'abeille' -> 'miel', 'usine' -> 'voiture', 'agriculteur' -> 'blé',  'moteur' -> 'gaz carbonique'."
        },
    "54": {
        "name" : "Résultat",
        "desc" : "Le terme est le résultat/produit de qui/quoi ?"
        },
    "55": {
        "name" : "Opposition",
        "desc" : "A quoi le terme suivant s'oppose/combat/empêche ?\nEx: un médicament s'oppose à la maladie."
        },
    "56": {
        "name" : "Opposition (inverse)",
        "desc" : "Inverse de opposition.\nEx: une bactérie à comme opposition antibiotique."
        },
    "57": {
        "name" : "Implication",
        "desc" : "Qu'est-ce que le terme implique logiquement ?\nEx: 'ronfler' -> 'dormir', 'courir' -> 'se déplacer', 'câlin' -> 'contact physique'. (attention ce n'est pas la cause ni le but...)"
        },
    "58": {
        "name" : "Quantificateur",
        "desc" : "Quantificateur(s) typique(s) pour le terme,  indiquant une quantité.\nEx: 'sucre' -> 'grain', 'morceau' - 'sel' -> 'grain', 'pincée' - 'herbe' -> 'brin', 'touffe'."
        },
    "59": {
        "name" : "Masculin",
        "desc" : "L'équivalent masculin du terme.\nEx: 'lionne' -> 'lion'."
        },
    "60": {
        "name" : "Féminin",
        "desc" : "L'équivalent féminin du terme.\nEx: lion -> lionne."
        },
    "61": {
        "name" : "Équivalent",
        "desc" : "Terme(s) strictement équivalent/identique.\nEx: acronymes et sigles (PS -> parti socialiste), apocopes (ciné -> cinéma), entités nommées (Louis XIV -> Le roi soleil), etc. (attention il ne s'agit pas de synonyme)"
        },
    "62": {
        "name" : "Manière (inverse)",
        "desc" : "Quelles actions (verbes) peut-on effectuer de cette manière ?\nEx: rapidement -> courir, manger, ..."
        },
    "63": {
        "name" : "Implication (verbe/action)",
        "desc" : "Les verbes ou actions qui sont impliqués dans la création de l'objet.(Il s'agit des étapes nécessaires à la réalisation du terme).\nEx: pour 'construire' un livre, il faut, imprimer, relier, brocher, etc."
        },
    "64": {
        "name" : "Instance",
        "desc" : "Une instance d'un 'type' est un individu particulier de ce type. Il s'agit d'une entité nommée.\nEx: 'transatlantique' a pour instance possible 'Titanic'."
        },
    "65": {
        "name" : "Verbe -> Réalisation",
        "desc" : "Pour un verbe, celui qui réalise l'action (par dérivation morphologique).\nEx: chasser -> chasseur, naviguer -> navigateur."
        },
    "67": {
        "name" : "Similaire",
        "desc" : "Terme similaire/ressemblant à ..\nEx: le congre est similaire à une anguille."
        },
    "68": {
        "name" : "Ensemble -> Élément",
        "desc" : "Quel est l'élément qui compose l'ensemble qui suit.\nEx: un essaim est composé d'abeilles."
        },
    "69": {
        "name" : "Élement -> Ensemble",
        "desc" : "Quel est l'ensemble qui est composé de l'élément qui suit.\nEx: plusieurs abeilles composent un essaim."
        },
    "70": {
        "name" : "Processus -> Agent",
        "desc" : "Quel est l'acteur de ce processus/événement ?\nEx: 'nettoyage' peut avoir comme acteur 'technicien de surface'."
        },
    "71": {
        "name" : "Variante",
        "desc" : "Variante(s) du terme.\nEx: yaourt, yahourt, ou encore évènement, événement."
        },
    "72": {
        "name" : "Strictement substituable",
        "desc" : "Termes strictement substituables, pour termes hors du domaine général, et pour la plupart des noms.\nEx: endométriose intra-utérine -> adénomyose."
        },
    "73": {
        "name" : "Plus petit que...",
        "desc" : "Qu'est-ce qui est physiquement plus gros que... (la comparaison doit être pertinente).\nEx: 'lapin' plus petit que 'chien'."
        },
    "74": {
        "name" : "Plus grand que...",
        "desc" : "Qu'est-ce qui est physiquement moins gros que... (la comparaison doit être pertinente).\nEx: 'chien' plus grand que 'lapin'."
        },
    "75": {
        "name" : "Accompagné de...",
        "desc" : "Le terme est souvent accompagné de, se trouve avec...\nEx: Astérix et Obelix, le pain et le fromage, les fraises et la chantilly."
        },
    "76": {
        "name" : "Processus -> Patient",
        "desc" : "Quel est le patient de ce processus/événement ?\nEx: 'découpe' peut avoir comme patient 'viande'."
        },
    "77": {
        "name" : "Participe passé",
        "desc" : "Le participe passé (au masculin singulier) du verbe infinitif.\nEx: pour manger -> mangé."
        },
    "78": {
        "name" : "Co-hyponyme",
        "desc" : "Énumération des termes co-hyponyme du terme.\nEx: 'chat' et 'tigre' sont des co-hyponymes de 'félin'."
        },
    "79": {
        "name" : "Participe présent",
        "desc" : "Le participe présent (au masculin singulier) du verbe infinitif.\nEx: pour manger -> mangeant."
        },
    "80": {
        "name" : "Processus -> Instrument",
        "desc" : "Quel est l'instrument/moyen de ce processus/événement ?\nEx: 'découpe' peut avoir comme instrument 'couteau'."
        },
    "99": {
        "name" : "Dérivé morphologique",
        "desc" : "Des termes dérivés morphologiquement sont énumérés.\nEx: pour 'lait' on pourrait mettre 'laitier', 'laitage', 'laiterie', etc. (mais pas 'lactose')."
        },
    "100":{
        "name" : "Auteur",
        "desc" : "Quel est l'auteur de l'oeuvre suivante ?\nEx: 'Le rouge et le noir' -> 'Émile Zola'."
        },
    "101": {
        "name" : "Personnage",
        "desc" : "Quels sont les personnages présents dans l'oeuvre qui suit ?"
        },
    "102": {
        "name" : "Nourriture",
        "desc" : "De quoi peut se nourir l'animal suivant ?"
        },
    "103": {
        "name" : "Acteur",
        "desc" : "A comme acteurs (pour un film ou similaire)."
        },
    "104": {
        "name" : "Mode de déplacement",
        "desc" : "Mode de déplacement.\nEx: 'chat' -> 'marche'."
        },
    "105": {
        "name" : "Interprète",
        "desc" : "Interprète de personnages (cinéma ou théâtre)."
        },
    "106": {
        "name" : "Couleur",
        "desc" : "A comme couleur(s).\nEx: chat -> noir."
        },
    "107": {
        "name" : "Cible",
        "desc" : "A comme cible(s).\nEx: cible de la maladie : myxomatose => lapin, rougeole => enfant."
        },
    "108": {
        "name" : "Symptômes",
        "desc" : "A comme symptôme(s).\nEx: symptômes de la maladie : myxomatose => yeux rouges, rougeole => boutons."
        },
    "109": {
        "name" : "Prédécesseur temporel",
        "desc" : "Qu'est ce qui peut précéder temporellement (inverse de successeur temporel) le terme ?"
        },
    "110": {
        "name" : "Diagnostique",
        "desc" : "Ex: diagnostique pour la maladie : diabète => prise de sang, rougeole => examen clinique."
        },
    "111": {
        "name" : "Prédécesseur spatial",
        "desc" : "Qu'est ce qui peut précéder spatialement (inverse de successeur spatial) le terme ?"
        },
    "112": {
        "name" : "Successeur spatial",
        "desc" : "Qu'est ce qui peut suivre spatialement le terme ?\nEx: 'Locomotive à vapeur' -> 'tender', 'wagon' etc.."
        },
    "113": {
        "name" : "Relation (sociale/familliale)",
        "desc" : "Relation sociale/familliale entre les individus..."
        },
    "114": {
        "name" : "Tributaire (physique/spatial)",
        "desc" : "Tributaire de physique/spatial)"
        },
    "115": {
        "name" : "Sentiment (inverse)",
        "desc" : "Pour un sentiment ou émotion donné, énumération des termes associés.\nEx: pour 'joie', on aurait 'cadeau', 'naissance', 'bonne nouvelle', etc.."
        },
    "116": {
        "name" : "Lien",
        "desc" : "À quoi le terme est relié ?\nEx: un wagon est relié à un autre wagon ou à une locomotive."
        },
    "117": {
        "name" : "Fonction",
        "desc" : "La fonction de ce terme par rapport à d'autres. Pour les prépositions notamment, 'chez' -> 'relation'"
        },
    "119": {
        "name" : "But (nom/verbe)",
        "desc" : "But de l'action (nom ou verbe)."
        },
    "120": {
        "name" : "Action/Verbe -> But",
        "desc" : "Quel sont les actions ou verbes qui ont le terme cible comme but ?"
        },
    "121": {
        "name" : "Personne -> Possession",
        "desc" : "Que possède le terme ?\nEx: un soldat possède un fusil, une cavalière des bottes, un fusil, etc.."
        },
    "122": {
        "name" : "Possession -> Personne",
        "desc" : "Par qui ou quoi est possédé le terme ?\nEx: un fusil est possédé par un soldat."
        },
    "123": {
        "name" : "Auxiliaire",
        "desc" : "Auxiliaire utilisé pour ce verbe."
        },
    "124": {
        "name" : "Prédécesseur logique",
        "desc" : "Qu'est ce qui peut précéder le terme (inverse de successeur logique) ?\nEx: A précède B."
        },
    "125": {
        "name" : "Successeur logique",
        "desc" : "Qu'est ce qui peut suivre logiquement le terme ?\nEx: A -> B, C.."
        },
    "126": {
        "name" : "Incompatibilité générique",
        "desc" : "Relation d'incompatibilité pour les génériques.\nSi A est incompatible B alors X ne peut pas être à la fois A et B ou alors X est polysémique.\nEx: poisson est incompatible avec oiseau."
        },
    "127": {
        "name" : "Incompatibilité",
        "desc" : "Relation d'incompatibilité (ne doivent pas être présents ensemble).\nEx: alcool incompatible avec antibiotique."
        },
    "129": {
        "name" : "Requiert",
        "desc" : "Énumération des termes nécessaires au terme donné.\nEx: 'se reposer' -> 'calme', ou 'pain' -> 'farine'."
        },
    "130": {
        "name" : "Instance de...",
        "desc" : "Une instance est un individu particulier. Il s'agit d'une entité nommée.\nEx: 'Jolly Jumper' est une instance de 'cheval', 'Titanic' en est une de 'transatlantique'."
        },
    "131": {
        "name" : "Concerné par...",
        "desc" : "A peut être concerné par B.\nEx: une personne a un rendez-vous a une maladie, une idée, une opinion, etc.."
        },
    "132": {
        "name" : "Symptômes (inverse)",
        "desc" : "Inverse de symptômes de la maladie.\nEx: myxomatose -> yeux rouges, rougeole -> boutons."
        },
    "133": {
        "name" : "Unités",
        "desc" : "A comme unités pour une propriété, ou une mesure.\nEx: vitesse a pour unités m/s ou km/h, etc.."
        },
    "134": {
        "name" : "Favorise",
        "desc" : "Qu'est-ce que le terme donné favorise ?\nEx: un catalyseur favorise une réaction chimique."
        },
    "135": {
        "name" : "Circonstances",
        "desc" : "Les circonstances possibles pour un événements, ou un objet."
        },
    "136": {
        "name" : "Oeuvres",
        "desc" : "Quelles sont les oeuvres de l'auteur donné ?"
        },
    "137": {
        "name" : "Processus -> Agent (inverse)",
        "desc" : "Inverse de Agent-> Processus."
        },
    "138": {
        "name" : "Processus -> Patient (inverse)",
        "desc" : "Inverse de Patient -> Processus."
        },
    "139": {
        "name" : "Processus -> Instrument (inverse)",
        "desc" : "Inverse d'Instrument -> Processus"
        },
    "149": {
        "name" : "Complément d'agent",
        "desc" : "Le complément d'agent est celui qui effectue l'action dans les formes passives.\nEx: pour 'être mangé', la souris est l'agent et le chat le complément d'agent."
        },
    "150": {
        "name" : "Bénéficiaire",
        "desc" : "Le bénéficiaire est l'entité qui tire bénéfice/préjudice de l'action (un complément d'objet indirect introduit par 'à', 'pour', ...).\nEx: dans - La sorcière donne une pomme à Blanche Neige -, la bénéficiaire est Blanche Neige..."
        },
    "151": {
        "name" : "Déscend de.. (évolution)",
        "desc" : "Déscend de.. (évolution)"
        },
    "152": {
        "name" : "Domaine de substitution",
        "desc" : "Quels sont le ou les domaines de substitution pour ce terme quand il est utilisé comme domaine ?\nEx: 'muscle' -> 'anatomie du système musculaire'."
        },
    "153": {
        "name" : "Propriété (nom)",
        "desc" : "Pour le terme donné, les noms de propriétés pertinents (on ne met que des noms et pas des adjectifs).\nEx: pour 'voiture' on a le 'prix', la 'puissance', la 'longueur', le 'poids', etc.."
        },
    "154": {
        "name" : "Voix active",
        "desc" : "Pour un verbe à la voix passive, sa voix active.\nEx: pour 'être mangé' on aura 'manger'."
        },
    "155": {
        "name" : "Utilise",
        "desc" : "Le terme donné peut utiliser un objet ou produit.\nEx: pour 'frigo' on aura 'électricité'."
        },
    "156": {
        "name" : "Est utilisé",
        "desc" : "Est utilisé par.\nEx: pour 'essence' on a 'voiture'."
        },
    "157": {
        "name" : "Adjectif -> Propriété",
        "desc" : "Pour un adjectif donné, le nom de propriété correspondant.\nEx: pour 'friable' -> 'friabilité'."
        },
    "158": {
        "name" : "Propriété -> Adjectif",
        "desc" : "Pour un nom de propriété donné, l'adjectif correspondant.\nEx: pour 'friabilité' -> 'friable'."
        },
    "159": {
        "name" : "Adjectif -> Adverbe",
        "desc" : "Pour un adjectif donné, l'adverbe correspondant.\nEx: pour 'rapide' -> 'rapidement'."
        },
    "160": {
        "name" : "Adverbe -> Adjectif",
        "desc" : "Pour un adverbe donné, l'adjectif correspondant.\nEx: pour 'rapidement' -> 'rapide'."
        },
    "161": {
        "name" : "Homophone",
        "desc" : "Énumération des homophones ou quasi-homophones du terme."
        },
    "162": {
        "name" : "Confusion potentielle",
        "desc" : "Confusion potentielle avec un autre terme.\nEx: acre et âcre, détonner et détoner."
        },
    "163": {
        "name" : "Concerne",
        "desc" : "Qui concerne quelque chose ou quelqu'un (inverse de Conserné par).\nEx: 'maladie' -> 'personne', ou 'disparition' -> 'emploi'."
        },
    "164": {
        "name" : "Adjectif -> Nom",
        "desc" : "Le nom associé à l'adjectif.\nEx: 'urinaire' -> 'urine'."
        },
    "165": {
        "name" : "Nom -> Adjectif",
        "desc" : "L'adjectif associé au nom.\nEx: 'urine' -> 'urinaire'."
        },
    "166": {
        "name" : "Opinion de...",
        "desc" : "L'opinion de tel groupe ou telle personne. Utilisé comme relation d'annotation."
        },
    "333": {
        "name" : "Translation",
        "desc" : "Traduction vers une autre langue."
        },
    "666": {
        "name" : "TOTAKI",
        "desc" : "Équivalent pour TOTAKI de l'association libre."
        },
    "777": {
        "name" : "Wikipédia",
        "desc" : "Associations issues de wikipedia."
        },
    "997": {
        "name" : "Annotation d'exception",
        "desc" : "Relation pour indiquer qu'il s'agit d'une exception par rapport à la cible.\nEx: l'autruche ne vole pas, et c'est une exception par rapport à l'oiseau prototypique."
        },
    "998": {
        "name" : "Annotation",
        "desc" : "Relation pour annoter (de façon générale) des relations."
        },
    "999": {
        "name" : "Inhibition",
        "desc" : "Relation d'inhibition, le terme inhibe les termes suivants. Ce terme a tendance à exclure le terme associé."
        }
}
